{
  "data": [
    {
      "id": 36,
      "parentable_type": "post",
      "postable_type": "user",
      "postable_id": 9,
      "parentable_id": 9,
      "created_at": null,
      "updated_at": null,
      "parentable":{
        "id": 100,
        "name": "Quaerat nostrum velit at debitis.",
        "body": "Ducimus consequatur odio quia voluptas amet veritatis. Quae dolores quam ut distinctio quibusdam dolores et. Unde odio delectus aliquid optio eum quo sed.",
        "user_id": 3,
        "deleted_at": null,
        "created_at": "2021-01-02 22:06:13",
        "updated_at": "2021-01-02 22:06:13",
        "likes_count": 0,
        "comments_count": 0,
        "views_count": 0,
        "user": {
          "id": 3,
          "name": "Carleton Nader",
          "api_token": null,
          "avatar": "https://lorempixel.com/50/50/?14300",
          "email": "claire99@example.org",
          "assigned_at": null,
          "email_verified_at": "2021-01-02 22:05:49",
          "deleted_at": null,
          "phone": null,
          "gender": null,
          "verified": 0,
          "created_at": "2021-01-02 22:05:49",
          "updated_at": "2021-01-02 22:05:49"
        }

      }},
    {
      "id": 27,
      "parentable_type": "video",
      "postable_type": "user",
      "postable_id": 7,
      "parentable_id": 7,
      "created_at": null,
      "updated_at": null,
      "parentable":  {
        "id": 1,
        "name": "Quae reprehenderit sit aut at.",
        "src_url": "/storage/video/videoplayback.mp4",
        "full_text": "Nihil amet dolores molestiae ullam hic odit. Maiores qui quisquam adipisci id et. Qui odio perferendis eaque perferendis voluptatem consequatur ea.",
        "description": "Aut dignissimos natus id dolore.",
        "author_id": 1,
        "uploader_id": 1,
        "church_id": null,
        "size": 167802,
        "length": 190714,
        "language": "az",
        "likes_count": 0,
        "comments_count": 0,
        "views_count": 0,
        "deleted_at": null,
        "created_at": "2021-01-02 22:06:15",
        "updated_at": "2021-01-02 22:06:15",
        "churches": [],
        "author": {
          "id": 1,
          "name": "Ekene Madunagu",
          "api_token": null,
          "avatar": "https://lorempixel.com/50/50/?14300",
          "email": "ekenemadunagu@gmail.com",
          "assigned_at": null,
          "email_verified_at": null,
          "deleted_at": null,
          "phone": null,
          "gender": null,
          "verified": 0,
          "created_at": "2021-01-02 22:05:46",
          "updated_at": "2021-01-02 22:05:46"
        },
        "user": {
          "id": 1,
          "name": "Ekene Madunagu",
          "api_token": null,
          "avatar": "https://lorempixel.com/50/50/?14300",
          "email": "ekenemadunagu@gmail.com",
          "assigned_at": null,
          "email_verified_at": null,
          "deleted_at": null,
          "phone": null,
          "gender": null,
          "verified": 0,
          "created_at": "2021-01-02 22:05:46",
          "updated_at": "2021-01-02 22:05:46"
        }
      }
    },
    {
      "id": 26,
      "parentable_type": "audio",
      "postable_type": "user",
      "postable_id": 7,
      "parentable_id": 7,
      "created_at": null,
      "updated_at": null,
      "parentable":  {
        "id": 1,
        "name": "Qui eveniet ullam odio accusamus non qui.",
        "src_url": "/storage/audio/Hillsong-Touch-Of-Heaven.mp3",
        "full_text": "Quia harum qui maiores et officia. Voluptatem tempore magni omnis aut voluptatem aut alias dignissimos. Officiis vero qui expedita accusamus dolor. Nihil laborum ipsum ducimus atque temporibus accusamus repellat. Voluptatem cupiditate maxime autem quo voluptate.",
        "description": "Et ducimus dolorum perferendis est.",
        "author_id": 1,
        "uploader_id": 1,
        "size": 123435,
        "length": 118152,
        "language": "bn",
        "address_id": null,
        "deleted_at": null,
        "likes_count": 0,
        "comments_count": 0,
        "views_count": 0,
        "created_at": "2021-01-02 22:06:21",
        "updated_at": "2021-01-02 22:06:21",
        "author": {
          "id": 1,
          "name": "Ekene Madunagu",
          "api_token": null,
          "avatar": "https://lorempixel.com/50/50/?14300",
          "email": "ekenemadunagu@gmail.com",
          "assigned_at": null,
          "email_verified_at": null,
          "deleted_at": null,
          "phone": null,
          "gender": null,
          "verified": 0,
          "created_at": "2021-01-02 22:05:46",
          "updated_at": "2021-01-02 22:05:46"
        },
        "user": {
          "id": 1,
          "name": "Ekene Madunagu",
          "api_token": null,
          "avatar": "https://lorempixel.com/50/50/?14300",
          "email": "ekenemadunagu@gmail.com",
          "assigned_at": null,
          "email_verified_at": null,
          "deleted_at": null,
          "phone": null,
          "gender": null,
          "verified": 0,
          "created_at": "2021-01-02 22:05:46",
          "updated_at": "2021-01-02 22:05:46"
        }
      }
    },
    {
      "id": 25,
      "parentable_type": "event",
      "postable_type": "user",
      "postable_id": 7,
      "parentable_id": 7,
      "created_at": null,
      "updated_at": null,
      "parentable": {
        "id": 1,
        "name": "Voluptatem laudantium sapiente dolorum ducimus sint.",
        "description": null,
        "starting_at": "2017-07-16 13:35:34",
        "ending_at": "1986-03-10 08:27:05",
        "user_id": 9,
        "deleted_at": null,
        "created_at": "2021-01-02 22:06:00",
        "updated_at": "2021-01-02 22:06:00",
        "attendees_count": 0,
        "attending": 0,
        "user": {
          "id": 9,
          "name": "Enid Schiller",
          "api_token": null,
          "avatar": "https://lorempixel.com/50/50/?94790",
          "email": "schumm.garfield@example.net",
          "assigned_at": null,
          "email_verified_at": "2021-01-02 22:05:49",
          "deleted_at": null,
          "phone": null,
          "gender": null,
          "verified": 0,
          "created_at": "2021-01-02 22:05:50",
          "updated_at": "2021-01-02 22:05:50"
        },
        "attendees": [],
        "profile_media": null
      }
    },
    {
      "id": 36,
      "parentable_type": "post",
      "postable_type": "user",
      "postable_id": 9,
      "parentable_id": 9,
      "created_at": null,
      "updated_at": null,
      "parentable":
      {
        "id": 100,
        "name": "Quaerat nostrum velit at debitis.",
        "body": "Ducimus consequatur odio quia voluptas amet veritatis. Quae dolores quam ut distinctio quibusdam dolores et. Unde odio delectus aliquid optio eum quo sed.",
        "user_id": 3,
        "deleted_at": null,
        "created_at": "2021-01-02 22:06:13",
        "updated_at": "2021-01-02 22:06:13",
        "likes_count": 0,
        "comments_count": 0,
        "views_count": 0,
        "user": {
          "id": 3,
          "name": "Carleton Nader",
          "api_token": null,
          "avatar": "https://lorempixel.com/50/50/?14300",
          "email": "claire99@example.org",
          "assigned_at": null,
          "email_verified_at": "2021-01-02 22:05:49",
          "deleted_at": null,
          "phone": null,
          "gender": null,
          "verified": 0,
          "created_at": "2021-01-02 22:05:49",
          "updated_at": "2021-01-02 22:05:49"
        }

      }},
    {
      "id": 27,
      "parentable_type": "video",
      "postable_type": "user",
      "postable_id": 7,
      "parentable_id": 7,
      "created_at": null,
      "updated_at": null,
      "parentable":  {
        "id": 1,
        "name": "Quae reprehenderit sit aut at.",
        "src_url": "/storage/video/videoplayback.mp4",
        "full_text": "Nihil amet dolores molestiae ullam hic odit. Maiores qui quisquam adipisci id et. Qui odio perferendis eaque perferendis voluptatem consequatur ea.",
        "description": "Aut dignissimos natus id dolore.",
        "author_id": 1,
        "uploader_id": 1,
        "church_id": null,
        "size": 167802,
        "length": 190714,
        "language": "az",
        "deleted_at": null,
        "created_at": "2021-01-02 22:06:15",
        "updated_at": "2021-01-02 22:06:15",
        "churches": [],
        "likes_count": 0,
        "comments_count": 0,
        "views_count": 0,
        "author": {
          "id": 1,
          "name": "Ekene Madunagu",
          "api_token": null,
          "avatar": "https://lorempixel.com/50/50/?14300",
          "email": "ekenemadunagu@gmail.com",
          "assigned_at": null,
          "email_verified_at": null,
          "deleted_at": null,
          "phone": null,
          "gender": null,
          "verified": 0,
          "created_at": "2021-01-02 22:05:46",
          "updated_at": "2021-01-02 22:05:46"
        },
        "user": {
          "id": 1,
          "name": "Ekene Madunagu",
          "api_token": null,
          "avatar": "https://lorempixel.com/50/50/?14300",
          "email": "ekenemadunagu@gmail.com",
          "assigned_at": null,
          "email_verified_at": null,
          "deleted_at": null,
          "phone": null,
          "gender": null,
          "verified": 0,
          "created_at": "2021-01-02 22:05:46",
          "updated_at": "2021-01-02 22:05:46"
        }
      }
    },
    {
      "id": 26,
      "parentable_type": "audio",
      "postable_type": "user",
      "postable_id": 7,
      "parentable_id": 7,
      "created_at": null,
      "updated_at": null,
      "parentable":  {
        "id": 1,
        "name": "Qui eveniet ullam odio accusamus non qui.",
        "src_url": "/storage/audio/Hillsong-Touch-Of-Heaven.mp3",
        "full_text": "Quia harum qui maiores et officia. Voluptatem tempore magni omnis aut voluptatem aut alias dignissimos. Officiis vero qui expedita accusamus dolor. Nihil laborum ipsum ducimus atque temporibus accusamus repellat. Voluptatem cupiditate maxime autem quo voluptate.",
        "description": "Et ducimus dolorum perferendis est.",
        "author_id": 1,
        "uploader_id": 1,
        "size": 123435,
        "length": 118152,
        "language": "bn",
        "address_id": null,
        "deleted_at": null,
        "created_at": "2021-01-02 22:06:21",
        "updated_at": "2021-01-02 22:06:21",
        "likes_count": 0,
        "comments_count": 0,
        "views_count": 0,

        "author": {
          "id": 1,
          "name": "Ekene Madunagu",
          "api_token": null,
          "avatar": "https://lorempixel.com/50/50/?14300",
          "email": "ekenemadunagu@gmail.com",
          "assigned_at": null,
          "email_verified_at": null,
          "deleted_at": null,
          "phone": null,
          "gender": null,
          "verified": 0,
          "created_at": "2021-01-02 22:05:46",
          "updated_at": "2021-01-02 22:05:46"
        },
        "user": {
          "id": 1,
          "name": "Ekene Madunagu",
          "api_token": null,
          "avatar": "https://lorempixel.com/50/50/?14300",
          "email": "ekenemadunagu@gmail.com",
          "assigned_at": null,
          "email_verified_at": null,
          "deleted_at": null,
          "phone": null,
          "gender": null,
          "verified": 0,
          "created_at": "2021-01-02 22:05:46",
          "updated_at": "2021-01-02 22:05:46"
        }
      }
    },
    {
      "id": 25,
      "parentable_type": "event",
      "postable_type": "user",
      "postable_id": 7,
      "parentable_id": 7,
      "created_at": null,
      "updated_at": null,
      "parentable": {
        "id": 1,
        "name": "Voluptatem laudantium sapiente dolorum ducimus sint.",
        "description": null,
        "starting_at": "2017-07-16 13:35:34",
        "ending_at": "1986-03-10 08:27:05",
        "user_id": 9,
        "deleted_at": null,
        "created_at": "2021-01-02 22:06:00",
        "updated_at": "2021-01-02 22:06:00",
        "attendees_count": 0,
        "attending": 0,
        "user": {
          "id": 9,
          "name": "Enid Schiller",
          "api_token": null,
          "avatar": "https://lorempixel.com/50/50/?94790",
          "email": "schumm.garfield@example.net",
          "assigned_at": null,
          "email_verified_at": "2021-01-02 22:05:49",
          "deleted_at": null,
          "phone": null,
          "gender": null,
          "verified": 0,
          "created_at": "2021-01-02 22:05:50",
          "updated_at": "2021-01-02 22:05:50"
        },
        "attendees": [],
        "profile_media": null
      }
    }
  ],
  "pagination": {
    "total": 20,
    "count": 15,
    "per_page": 15,
    "current_page": 1,
    "total_pages": 2
  }
}
